{
  "environment": "test",
  "qa": {
    "url": "https://cloud.google.com/",
    "username": "testUser",
    "password": "testPassword"
  },
  "prod": {
    "url": "https://cloud.google.com/",
    "username": "prodUser",
    "password": "prodPassword"
  }
}